<?xml version="1.0" encoding="UTF-8" standalone="no" ?>
<!DOCTYPE svg PUBLIC "-//W3C//DTD SVG 1.1//EN" "http://www.w3.org/Graphics/SVG/1.1/DTD/svg11.dtd">
<svg xmlns="http://www.w3.org/2000/svg" xmlns:xlink="http://www.w3.org/1999/xlink" version="1.1" width="1080" height="1080" viewBox="0 0 1080 1080" xml:space="preserve">
<desc>Created with Fabric.js 5.2.4</desc>
<defs>
</defs>
<g transform="matrix(1 0 0 1 540 540)" id="10cda22b-40fe-4dba-951b-3ff7c0736f75"  >
<rect style="stroke: none; stroke-width: 1; stroke-dasharray: none; stroke-linecap: butt; stroke-dashoffset: 0; stroke-linejoin: miter; stroke-miterlimit: 4; fill: rgb(255,255,255); fill-rule: nonzero; opacity: 1; visibility: hidden;" vector-effect="non-scaling-stroke"  x="-540" y="-540" rx="0" ry="0" width="1080" height="1080" />
</g>
<g transform="matrix(1 0 0 1 540 540)" id="82536215-dc34-4e9f-8168-39b3bad34825"  >
</g>
<g transform="matrix(10.49 0 0 10.49 540 540)"  >
<g style=""   >
		<g transform="matrix(1 0 0 1 0 0)" id="SvgjsG1190"  >
<rect style="stroke: none; stroke-width: 1; stroke-dasharray: none; stroke-linecap: butt; stroke-dashoffset: 0; stroke-linejoin: miter; stroke-miterlimit: 4; fill: rgb(255,205,56); fill-rule: nonzero; opacity: 1;" vector-effect="non-scaling-stroke"  x="-51.5" y="-46.5" rx="8" ry="8" width="103" height="93" />
</g>
		<g transform="matrix(0.09 0 0 0.09 0 0)" id="SvgjsG1191"  >
<rect style="stroke: none; stroke-width: 1; stroke-dasharray: none; stroke-linecap: butt; stroke-dashoffset: 0; stroke-linejoin: miter; stroke-miterlimit: 4; fill: none; fill-rule: nonzero; opacity: 1;" vector-effect="non-scaling-stroke"  x="-351" y="-351" rx="0" ry="0" width="702" height="702" />
</g>
		<g transform="matrix(0.09 0 0 0.09 -12.08 3.02)" id="SvgjsG1191"  >
<path style="stroke: none; stroke-width: 1; stroke-dasharray: none; stroke-linecap: butt; stroke-dashoffset: 0; stroke-linejoin: miter; stroke-miterlimit: 4; fill: rgb(255,255,255); fill-rule: nonzero; opacity: 1;" vector-effect="non-scaling-stroke"  transform=" translate(-215.35, -383.6)" d="M 222 158.3 C 191 159 164.5 179.3 142.5 219.10000000000002 C 119.4 263.90000000000003 108 313.70000000000005 108.2 368.5 C 108.60000000000001 375.1 109.3 375.7 110.4 370.4 C 119.7 330.09999999999997 129.4 298.59999999999997 139.5 275.79999999999995 C 149.4 252.89999999999995 160.4 234.09999999999997 172.4 219.59999999999997 C 200 187.49999999999997 223.9 182.29999999999995 244.2 203.99999999999997 C 266.4 229.59999999999997 278.2 272.79999999999995 279.59999999999997 333.4 C 278.4 414.9 267.7 476.5 247.49999999999997 518.4 C 222.19999999999996 569.4 196.2 586.4 169.79999999999995 569.1999999999999 C 133.79999999999995 540.4999999999999 113.79999999999995 476.8999999999999 109.79999999999995 378.5999999999999 C 108.39999999999995 375.19999999999993 107.09999999999995 377.69999999999993 106.09999999999995 386.0999999999999 C 104.19999999999995 396.2999999999999 102.89999999999995 407.4999999999999 102.09999999999995 419.3999999999999 C 99.09999999999995 472.7999999999999 106.19999999999995 518.0999999999999 123.29999999999995 555.3 C 140.79999999999995 590.5999999999999 164.09999999999997 608.5 193.19999999999996 609.0999999999999 C 224.59999999999997 608.5999999999999 253.19999999999996 588.0999999999999 279.09999999999997 547.3999999999999 C 304.9 504.89999999999986 321.49999999999994 453.09999999999985 328.79999999999995 391.79999999999984 C 331.49999999999994 326.59999999999985 322.69999999999993 271.09999999999985 302.49999999999994 225.29999999999984 C 282.09999999999997 181.69999999999985 255.39999999999995 159.29999999999984 222.49999999999994 158.09999999999985" stroke-linecap="round" />
</g>
		<g transform="matrix(0.09 0 0 0.09 -9 -10.16)" id="SvgjsG1191"  >
<path style="stroke: none; stroke-width: 1; stroke-dasharray: none; stroke-linecap: butt; stroke-dashoffset: 0; stroke-linejoin: miter; stroke-miterlimit: 4; fill: rgb(255,255,255); fill-rule: nonzero; opacity: 1;" vector-effect="non-scaling-stroke"  transform=" translate(-249.75, -236.82)" d="M 452 134.1 C 435.9 107.69999999999999 405.1 94.8 359.6 95.6 C 309.3 98 260.40000000000003 113 213.00000000000003 140.6 C 207.50000000000003 144.2 207.30000000000004 145.2 212.40000000000003 143.5 C 252.00000000000003 131.4 284.1 124 308.80000000000007 121.4 C 333.6000000000001 118.5 355.30000000000007 118.60000000000001 373.9000000000001 121.80000000000001 C 415.5000000000001 129.70000000000002 432.0000000000001 147.8 423.30000000000007 176.20000000000002 C 412.20000000000005 208.20000000000002 380.70000000000005 240 328.9000000000001 271.6 C 257.7000000000001 311.3 199.00000000000009 332.90000000000003 152.7000000000001 336.3 C 95.8000000000001 339.90000000000003 68.2000000000001 325.90000000000003 69.9000000000001 294.40000000000003 C 77 248.8 122 199.7 205.1 147 C 207.29999999999998 144.1 204.5 144.3 196.79999999999998 147.6 C 186.99999999999997 151.1 176.7 155.5 165.89999999999998 160.79999999999998 C 118.19999999999997 184.89999999999998 82.39999999999998 213.7 58.79999999999998 247.09999999999997 C 36.999999999999986 279.9 33.09999999999998 309.09999999999997 47.09999999999998 334.5 C 63.19999999999998 361.4 95.29999999999998 375.9 143.5 378 C 193.2 379.1 246.4 367.6 303.1 343.2 C 360.90000000000003 312.9 404.6 277.6 434.1 237.2 C 461.70000000000005 197.7 467.70000000000005 163.39999999999998 452.3 134.29999999999998" stroke-linecap="round" />
</g>
		<g transform="matrix(0.09 0 0 0.09 4.44 -13.7)" id="SvgjsG1191"  >
<path style="stroke: none; stroke-width: 1; stroke-dasharray: none; stroke-linecap: butt; stroke-dashoffset: 0; stroke-linejoin: miter; stroke-miterlimit: 4; fill: rgb(255,255,255); fill-rule: nonzero; opacity: 1;" vector-effect="non-scaling-stroke"  transform=" translate(-399.49, -197.32)" d="M 588 321.2 C 602.8 294 598.6 260.9 575.1 221.89999999999998 C 547.8000000000001 179.49999999999997 510.40000000000003 144.7 462.8 117.49999999999997 C 456.90000000000003 114.49999999999997 456 114.79999999999997 460 118.39999999999998 C 490.3 146.59999999999997 512.7 170.79999999999998 527.4 190.79999999999998 C 542.3 210.89999999999998 553.1 229.7 559.6 247.39999999999998 C 573.6 287.4 566.1 310.7 537.2 317.29999999999995 C 503.90000000000003 323.69999999999993 460.70000000000005 312.29999999999995 407.40000000000003 283.29999999999995 C 337.5 241.49999999999994 289.40000000000003 201.39999999999995 263.20000000000005 163.09999999999997 C 231.70000000000005 115.59999999999997 230.00000000000006 84.69999999999996 258.1 70.39999999999996 C 301 53.599999999999966 366 68.09999999999997 453.20000000000005 113.79999999999995 C 456.80000000000007 114.19999999999996 455.30000000000007 111.89999999999995 448.50000000000006 106.89999999999995 C 440.6000000000001 100.09999999999995 431.6000000000001 93.39999999999995 421.6000000000001 86.69999999999995 C 376.9000000000001 57.39999999999995 334.1000000000001 40.89999999999995 293.30000000000007 37.099999999999945 C 254.00000000000006 34.599999999999945 226.80000000000007 45.79999999999994 211.70000000000007 70.69999999999995 C 196.40000000000006 98.09999999999994 199.90000000000006 133.19999999999993 222.20000000000007 175.89999999999995 C 246.10000000000008 219.49999999999994 282.70000000000005 259.79999999999995 332.1000000000001 296.69999999999993 C 387.2000000000001 331.5999999999999 439.70000000000005 351.79999999999995 489.4000000000001 357.0999999999999 C 537.4000000000001 361.19999999999993 570.2 349.2999999999999 587.6000000000001 321.3999999999999" stroke-linecap="round" />
</g>
		<g transform="matrix(0.09 0 0 0.09 13.52 -3.84)" id="SvgjsG1191"  >
<path style="stroke: none; stroke-width: 1; stroke-dasharray: none; stroke-linecap: butt; stroke-dashoffset: 0; stroke-linejoin: miter; stroke-miterlimit: 4; fill: rgb(255,255,255); fill-rule: nonzero; opacity: 1;" vector-effect="non-scaling-stroke"  transform=" translate(-500.65, -307.2)" d="M 494 532.5 C 525 531.8 551.5 511.5 573.5 471.7 C 596.6 426.9 608 377.1 607.8 322.29999999999995 C 607.4 315.69999999999993 606.6999999999999 315.09999999999997 605.5999999999999 320.4 C 596.3 360.7 586.5999999999999 392.2 576.4999999999999 415 C 566.5999999999999 437.9 555.5999999999999 456.7 543.5999999999999 471.2 C 515.9999999999999 503.3 492.0999999999999 508.5 471.7999999999999 486.8 C 449.5999999999999 461.2 437.7999999999999 418 436.3999999999999 357.4 C 437.5999999999999 275.9 448.2999999999999 214.29999999999998 468.49999999999994 172.39999999999998 C 493.79999999999995 121.39999999999998 519.8 104.39999999999998 546.1999999999999 121.59999999999998 C 582.1999999999999 150.29999999999998 602.1999999999999 213.89999999999998 606.1999999999999 312.2 C 607.5999999999999 315.59999999999997 608.9 313.09999999999997 609.9 304.7 C 611.8 294.5 613.1 283.3 613.9 271.4 C 616.9 217.99999999999997 609.8 172.7 592.6999999999999 135.49999999999997 C 575.1999999999999 100.19999999999997 551.9 82.29999999999997 522.8 81.69999999999997 C 491.4 82.19999999999997 462.79999999999995 102.69999999999997 436.9 143.39999999999998 C 411.09999999999997 185.89999999999998 394.5 237.7 387.2 299 C 384.5 364.2 393.3 419.7 413.5 465.5 C 433.9 509.1 460.6 531.5 493.5 532.7" stroke-linecap="round" />
</g>
		<g transform="matrix(0.09 0 0 0.09 -3.01 12.88)" id="SvgjsG1191"  >
<path style="stroke: none; stroke-width: 1; stroke-dasharray: none; stroke-linecap: butt; stroke-dashoffset: 0; stroke-linejoin: miter; stroke-miterlimit: 4; fill: rgb(255,255,255); fill-rule: nonzero; opacity: 1;" vector-effect="non-scaling-stroke"  transform=" translate(-316.51, -493.48)" d="M 128 369.6 C 113.2 396.8 117.4 429.90000000000003 140.9 468.90000000000003 C 168.20000000000002 511.3 205.60000000000002 546.1 253.2 573.3000000000001 C 259.09999999999997 576.3000000000001 260 576.0000000000001 256 572.4000000000001 C 225.7 544.2 203.3 520.0000000000001 188.6 500.0000000000001 C 173.7 479.9000000000001 162.9 461.10000000000014 156.39999999999998 443.4000000000001 C 142.39999999999998 403.4000000000001 149.89999999999998 380.1000000000001 178.79999999999998 373.5000000000001 C 212.09999999999997 367.10000000000014 255.29999999999998 378.5000000000001 308.6 407.5000000000001 C 378.5 449.3000000000001 426.6 489.4000000000001 452.8 527.7000000000002 C 484.3 575.2000000000002 486 606.1000000000001 457.90000000000003 620.4000000000002 C 415.00000000000006 637.2000000000002 350 622.7000000000002 262.80000000000007 577.0000000000002 C 259.20000000000005 576.6000000000003 260.70000000000005 578.9000000000002 267.50000000000006 583.9000000000002 C 275.40000000000003 590.7000000000002 284.40000000000003 597.4000000000002 294.40000000000003 604.1000000000003 C 339.1 633.4000000000002 381.90000000000003 649.9000000000002 422.70000000000005 653.7000000000003 C 462.00000000000006 656.2000000000003 489.20000000000005 645.0000000000002 504.30000000000007 620.1000000000003 C 519.6 592.7000000000003 516.1 557.6000000000003 493.80000000000007 514.9000000000002 C 469.9000000000001 471.3000000000002 433.30000000000007 431.0000000000002 383.9000000000001 394.1000000000002 C 328.80000000000007 359.2000000000002 276.30000000000007 339.00000000000017 226.60000000000008 333.7000000000002 C 178.60000000000008 329.6000000000002 145.80000000000007 341.5000000000002 128.4000000000001 369.4000000000002" stroke-linecap="round" />
</g>
		<g transform="matrix(0.09 0 0 0.09 10.45 9.33)" id="SvgjsG1191"  >
<path style="stroke: none; stroke-width: 1; stroke-dasharray: none; stroke-linecap: butt; stroke-dashoffset: 0; stroke-linejoin: miter; stroke-miterlimit: 4; fill: rgb(255,255,255); fill-rule: nonzero; opacity: 1;" vector-effect="non-scaling-stroke"  transform=" translate(-466.4, -453.93)" d="M 264 556.7 C 280.1 583.1 310.9 596 356.4 595.2 C 406.7 592.8000000000001 455.59999999999997 577.8000000000001 503 550.2 C 508.5 546.6 508.7 545.6 503.6 547.3000000000001 C 464 559.4000000000001 431.90000000000003 566.8000000000001 407.20000000000005 569.4000000000001 C 382.40000000000003 572.3000000000001 360.70000000000005 572.2 342.1 569.0000000000001 C 300.5 561.1000000000001 284 543.0000000000001 292.70000000000005 514.6000000000001 C 303.80000000000007 482.60000000000014 335.30000000000007 450.8000000000001 387.1 419.20000000000016 C 458.3 379.50000000000017 517 357.90000000000015 563.3 354.50000000000017 C 620.1999999999999 350.90000000000015 647.8 364.90000000000015 646.0999999999999 396.40000000000015 C 639.1999999999999 441.90000000000015 594.1999999999999 491.0000000000001 510.9999999999999 543.7000000000002 C 508.7999999999999 546.6000000000001 511.5999999999999 546.4000000000002 519.2999999999998 543.1000000000001 C 529.0999999999998 539.6000000000001 539.3999999999999 535.2000000000002 550.1999999999998 529.9000000000001 C 597.8999999999999 505.80000000000007 633.6999999999998 477.0000000000001 657.2999999999998 443.6000000000001 C 679.0999999999998 410.80000000000007 682.9999999999999 381.6000000000001 668.9999999999999 356.20000000000005 C 652.8999999999999 329.30000000000007 620.7999999999998 314.80000000000007 572.6999999999999 312.70000000000005 C 522.9999999999999 311.6 469.79999999999995 323.1 413.0999999999999 347.50000000000006 C 355.2999999999999 377.80000000000007 311.5999999999999 413.1 282.0999999999999 453.50000000000006 C 254.49999999999991 493.00000000000006 248.49999999999991 527.3000000000001 263.8999999999999 556.4000000000001" stroke-linecap="round" />
</g>
</g>
</g>
</svg>